…
### And we also find the total number of citations for each journal.

``` r
AB_journal_ciation <- data.frame(name = AB_journal_name,
                                 citation = AB_citation)
AB_journal_ciation <- filter(AB_journal_ciation,
                             !is.na(name))
AB_citation_time <- AB_journal_ciation%>%
  group_by(name)%>%
  summarise(time = sum(citation,na.rm = TRUE))
AB_citation_time 
```

    ## # A tibble: 269 x 2
    ##    name                                                                time
    ##    <fct>                                                              <dbl>
    ##  1 A Research on China’s Economic Growth Potential                        3
    ##  2 A. Robinson. Reversal of fortune: Geography and institutions in t~    34
    ##  3 ABCDE                                                                  3
    ##  4 Accessed February                                                     29
    ##  5 Achieving the Millennium Development Goals                             3
    ##  6 Advances in Economics and Econometrics: Theory and Applications E~   284
    ##  7 AEA Papers and Proceedings                                            97
    ##  8 African Successes Volume I: Government and Institutions                3
    ##  9 Albrecht Knaus Verlag                                                 10
    ## 10 American Economic Journal: Applied Economics                        2442
    ## # ... with 259 more rows

``` r
ED_journal_ciation <- data.frame(name = ED_journal_name,
                                 citation = ED_citation)
ED_journal_ciation <- filter(ED_journal_ciation,
                             !is.na(name))
ED_citation_time <- ED_journal_ciation%>%
  group_by(name)%>%
  summarise(time = sum(citation,na.rm = TRUE))
ED_citation_time 
```

    ## # A tibble: 252 x 2
    ##    name                                                                time
    ##    <fct>                                                              <dbl>
    ##  1 [Rabat Morocco] John Snow [JSI]  Jun .                                 0
    ##  2 [Unpublished]  Aug.                                                    0
    ##  3 [Unpublished] . Prepared for the IAEN Economics of HIV/AIDS in<U+00A0>…       0
    ##  4 A Radical Rethinking of the Way to Fight Global Poverty. New York~     2
    ##  5 A Research on China’s Economic Growth Potential                        0
    ##  6 Accessed February                                                     29
    ##  7 AEA Papers and Proceedings                                             2
    ##  8 Albrecht Knaus Verlag                                                 10
    ##  9 American Economic Association Ten Years and Beyond: Economists An~     1
    ## 10 American Economic Journal: Applied Economics                        2198
    ## # ... with 242 more rows
…
